<svg width="10" height="13" viewBox="0 0 10 13" fill="none" xmlns="http://www.w3.org/2000/svg">
<path d="M3.25 0.25C2.1125 0.25 1.04375 0.5625 0.125 1.09375C1.99375 2.175 3.25 4.1875 3.25 6.5C3.25 8.8125 1.99375 10.825 0.125 11.9062C1.04375 12.4375 2.1125 12.75 3.25 12.75C6.7 12.75 9.5 9.95 9.5 6.5C9.5 3.05 6.7 0.25 3.25 0.25Z" fill="black"/>
</svg>
